     667977.856    7112614.254
     676184.583    7088035.049
     686904.610    7070000.978
     695158.972    7063794.863
     698683.522    7068486.972
     710421.148    7081746.973
     714971.086    7072899.765
     722900.397    7047591.803
     729250.362    7040818.713
     743806.979    7043843.441
     750309.273    7027224.069
     757559.355    7029103.634
     776309.222    7028374.040
     788499.816    7020329.797
     783173.865    7006475.710
     786977.966    6996846.560
     786348.679    6985124.175
     795350.449    6979489.894
     806392.231    6985755.331
     820640.150    6989399.055
     827959.407    7007099.725
     836355.880    7011746.534
     831510.012    6991118.812
     836037.099    6981713.165
     834183.712    6969240.588
     851565.226    6967623.688
     861435.458    6958426.430
     873602.202    6948607.418
     878506.692    6937057.299
     898838.094    6947606.945
     901790.407    6941840.780
     901790.407    6941840.780
     921638.524    6940026.138
     939718.016    6940735.595
     943857.629    6937790.963
     943857.629    6937790.963
     962557.383    6920771.578
     977496.949    6906024.791
     993874.300    6908054.395
     995815.680    6900808.113
    1017055.516    6905109.967
    1018978.908    6907666.916
    1026280.122    6907842.005
    1030041.536    6898420.289
    1044981.101    6894280.721
    1060142.187    6895751.918
    1080314.061    6886661.234
    1052354.006    6844635.273
    1051272.275    6833807.731
    1050686.943    6815688.414
    1041357.027    6796642.559
    1039805.168    6781647.944
    1043029.121    6777909.089
    1038196.674    6742209.987
    1043252.978    6730668.647
    1043252.978    6730668.647
    1031690.858    6714459.846
    1016361.368    6713749.331
    1016239.674    6718617.928
    1001311.752    6718293.651
     994542.850    6702674.840
    1000152.361    6701426.030
    1004468.956    6697086.088
     998295.881    6695193.308
     979902.185    6670050.781
     979588.789    6666265.270
     958920.904    6653871.339
     960761.610    6638104.972
     938920.213    6612575.641
     936695.749    6597290.514
     940703.797    6589652.311
     935645.929    6578544.581
     926476.210    6567637.059
     953171.232    6575160.982
     947714.790    6586911.744
     989897.725    6597861.141
     995820.053    6570114.244
    1013179.692    6545639.912
    1013179.692    6545639.912
     990011.925    6528453.533
    1011152.557    6511940.434
    1012761.474    6496834.193
    1028841.595    6487963.463
    1022375.244    6473363.201
    1002575.433    6453684.400
     995264.740    6458971.997
     980495.733    6449388.143
     994498.728    6431454.315
    1017443.971    6422230.088
    1023430.393    6405502.409
    1017376.596    6404876.323
    1007026.885    6386913.636
    1013712.882    6365897.079
    1042125.311    6349022.026
    1073736.446    6351526.562
    1074492.417    6336220.122
    1065795.868    6310558.118
    1065795.868    6310558.118
    1054701.431    6302101.087
    1047992.643    6294077.593
    1019974.067    6274616.937
     986343.835    6238888.416
     977151.658    6233948.836
     970108.686    6231295.339
     939337.779    6225317.743
     917337.179    6229539.810
     901084.388    6236015.483
     877935.928    6254676.208
     868820.324    6257280.491
     857892.423    6254790.568
     850337.939    6250929.611
     826977.627    6255191.009
     790507.737    6273776.587
     769761.864    6270200.447
     745082.349    6251318.739
     729477.089    6240666.796
     705850.724    6215909.380
     702416.835    6195681.494
     708641.733    6168845.208
     713862.001    6149053.733
     713862.001    6149053.733
     701121.161    6153680.336
     674028.491    6146346.862
     672400.917    6139090.299
     654596.163    6139864.397
     638398.695    6150252.439
     624481.532    6141532.566
     614809.365    6142624.691
     613056.412    6151432.521
     600565.053    6157571.287
     593127.429    6156331.560
     593127.429    6156331.560
     597684.976    6169906.159
     580436.303    6174217.799
     570379.842    6169084.843
     570379.842    6169084.843
     567203.777    6178530.185
     522424.572    6195559.104
     509640.480    6197079.902
     509685.920    6180344.421
     489491.485    6181298.866
     476810.188    6178242.257
     475692.112    6184654.741
     447055.383    6183473.723
     444187.190    6189545.312
     443247.586    6191537.473
     427621.483    6199828.134
     422556.998    6195932.064
     412894.092    6197738.814
     410606.413    6193790.328
     392895.063    6215014.092
     387170.335    6211961.254
     347991.928    6230568.253
     343682.029    6224891.775
     338323.355    6226547.121
     335177.482    6232259.895
     343189.322    6245235.561
     341637.875    6251629.475
     326438.096    6251370.435
     312327.704    6263682.270
     312327.704    6263682.270
     325061.777    6269310.589
     339949.289    6286670.563
     365716.975    6398039.152
     380826.597    6403727.024
     373289.424    6417845.754
     364427.086    6404109.618
     370507.942    6456419.685
     379342.167    6481946.737
     383382.168    6473137.393
     401197.266    6448622.437
     407936.497    6429141.232
     414472.314    6416628.141
     404657.618    6451380.625
     382464.228    6486784.358
     373913.336    6501960.464
     374744.552    6513824.473
     386526.811    6539866.531
     379431.231    6561674.260
     372510.851    6577708.311
     361450.170    6590820.601
     338471.396    6598408.417
     321164.107    6632267.448
     307478.967    6651457.564
     317961.998    6672620.190
     311188.459    6681940.086
     300053.141    6689378.443
     283303.654    6697854.627
     277760.268    6707062.539
     287517.864    6725398.335
     277122.038    6734975.185
     259320.934    6727348.894
     243908.596    6741249.659
     217376.716    6756270.980
     197537.531    6767238.930
     186905.199    6767464.159
     180755.339    6780772.761
     150573.006    6775087.182
     149573.535    6787944.601
     141446.442    6795116.768
     129701.646    6798406.539
     128312.683    6803867.554
     156495.048    6805367.151
     154615.484    6817250.665
     137986.511    6824198.671
     152874.282    6828025.963
     156740.835    6838031.829
     147593.184    6838105.260
     139032.108    6840047.047
     124967.553    6837197.253
     128415.354    6859456.202
     138328.490    6857647.392
     149111.433    6863955.939
     166850.224    6866539.516
     186120.778    6873532.417
     192279.359    6863395.889
     198966.648    6871250.837
     214247.148    6866653.600
     219081.349    6879431.986
     228268.800    6881583.894
     253627.710    6883340.383
     264994.750    6863808.625
     272998.979    6849940.804
     283955.831    6844829.265
     306470.455    6856861.477
     316304.441    6847661.496
     325844.064    6853410.958
     340713.827    6859048.858
     340778.141    6847470.152
     359203.299    6850443.492
     368752.746    6855473.786
     361270.769    6865045.567
     361247.931    6877681.551
     364118.163    6895037.941
     365584.022    6915486.096
     360592.706    6915426.830
     345765.650    6950233.825
     343802.156    6970882.009
     376568.928    6958675.061
     398188.866    6960406.356
     393819.985    6941352.957
     400101.885    6920115.944
     413669.158    6924675.230
     458717.927    6911727.017
     476339.937    6901720.718
     479360.745    6901884.815
     479360.745    6901884.815
     499368.676    6903010.293
     524541.212    6912290.101
     505152.239    6921543.051
     506874.728    6931835.452
     512579.861    6940043.778
     539123.458    6952806.413
     565869.618    6958372.886
     597221.022    6965911.297
     605640.810    6980246.221
     613426.318    6996299.510
     607118.978    7041266.566
     608032.622    7073138.120
     622492.967    7088912.484
     635542.566    7099330.199
     662881.031    7106965.287
     667977.856    7112614.254
